,BLR,C_FILT
0,5.2940e-04,3.5226e-07
1,5.2961e-04,5.1678e-07
2,5.3271e-04,3.2751e-07
3,5.2704e-04,4.0464e-07
4,5.2658e-04,4.7278e-07
5,0.0000e+00,0.0000e+00
6,0.0000e+00,0.0000e+00
7,0.0000e+00,0.0000e+00
